%YAML 1.1
%TAG !u! tag:unity3d.com,2011:
--- !u!114 &11400000
MonoBehaviour:
  m_ObjectHideFlags: 0
  m_CorrespondingSourceObject: {fileID: 0}
  m_PrefabInstance: {fileID: 0}
  m_PrefabAsset: {fileID: 0}
  m_GameObject: {fileID: 0}
  m_Enabled: 1
  m_EditorHideFlags: 0
  m_Script: {fileID: 11500000, guid: c0e2c94022e42e647a1e0701b5de9428, type: 3}
  m_Name: Settings
  m_EditorClassIdentifier: 
  gameSettings:
    birdPrefab: {fileID: 3009953855987551449, guid: c07082c0e2caacc4784c2ee5c0acd64f, type: 3}
    pipePrefab: {fileID: 2098264709449493860, guid: 9bb96661bb367b74286acb96d865a10e, type: 3}
  playerSettings:
    gravity: -9.81
    jumpForce: 5
    doubleTapSpeed: 0.3
    maxBombs: 3
    jumpSound: {fileID: 8300000, guid: fdcc23dfb99b1804a9c577ec33a6348b, type: 3}
    explosionSound: {fileID: 8300000, guid: ccf495c8151d8ab4fa98ea1bd15162a0, type: 3}
  pipesSettings:
    minY: -2
    maxY: 2.5
    density: 3
    scrollSpeed: 1.25
